{
  "parent": "betterwithmods:horizontal_windmill",
  "display": {
    "icon": {
      "item": "betterwithmods:axle_generator",
      "data": 2
    },
    "title": {
      "translate": "item.bwm:axle_generator.windmill_vertical.name"
    },
    "description": {
      "translate": "advancement.betterwithmods.vertical_windmill.desc"
    }
  },
  "criteria": {
    "has_item": {
      "trigger": "minecraft:inventory_changed",
      "conditions": {
        "items": [
          {
            "item": "betterwithmods:axle_generator",
            "data": 1
          }
        ]
      }
    }
  },
  "requirements": [
    [
      "has_item"
    ]
  ]
}